{
  "request": {
    "method": "GET",
    "urlPathPattern": "/v1/api/users/([1|3|5]*)"
  },
  "response": {
    "status": 200,
    "headers": {
      "Content-Type": "application/json"
    },
    "jsonBody": {
      "id": 1,
      "login": "login",
      "email": "email@mail.com",
      "password": "password",
      "firstName": "Jacek",
      "lastName": "Balcerzak",
      "roles": []
    }
  }
}