{
  "request": {
    "method": "GET",
    "urlPath": "/v1/api/users",
    "queryParameters": {
      "login": {
        "equalTo": "login2"
      }
    }
  },
  "response": {
    "status": 200,
    "headers": {
      "Content-Type": "application/json"
    },
    "jsonBody": {
      "id": 1,
      "login": "login2",
      "email": "email@mail.com",
      "password": "password",
      "firstName": "Jacek",
      "lastName": "Balcerzak",
      "roles": []
    }
  }
}